/* XPM */
static char * asd_xpm[] = {
"150 150 84 1",
" 	c None",
".	c #C8BFE7",
"+	c #7D7790",
"@	c #19181D",
"#	c #000000",
"$	c #524E5E",
"%	c #968FAD",
"&	c #767189",
"*	c #060607",
"=	c #0D0C0E",
"-	c #454250",
";	c #C2B9E0",
">	c #22B14C",
",	c #A29BBC",
"'	c #585465",
")	c #645F73",
"!	c #6A657A",
"~	c #4B4857",
"{	c #383641",
"]	c #9089A6",
"^	c #131216",
"/	c #32303A",
"(	c #A349A4",
"_	c #837D97",
":	c #B5ADD1",
"<	c #0A0A0C",
"[	c #89839F",
"}	c #100F12",
"|	c #040405",
"1	c #020203",
"2	c #B5E61D",
"3	c #3F3C48",
"4	c #26242B",
"5	c #82A515",
"6	c #171D04",
"7	c #6B8811",
"8	c #111603",
"9	c #1C2405",
"0	c #030303",
"a	c #AFDF1C",
"b	c #44570B",
"c	c #5A730E",
"d	c #EFE4B0",
"e	c #334108",
"f	c #9D96B6",
"g	c #D7CDD2",
"h	c #EAE0B7",
"i	c #2D3A07",
"j	c #615D48",
"k	c #EEE3B2",
"l	c #020202",
"m	c #5A5642",
"n	c #E0D6A5",
"o	c #EBE0B6",
"p	c #635F4A",
"q	c #ECE1B6",
"r	c #EFE4B1",
"s	c #DDD3A5",
"t	c #EFE5B0",
"u	c #EDE3B3",
"v	c #060701",
"w	c #607A0F",
"x	c #4F650D",
"y	c #ECE1AF",
"z	c #718F12",
"A	c #968E72",
"B	c #93BB18",
"C	c #EFE5B1",
"D	c #E5DBBE",
"E	c #E8DDAB",
"F	c #4A5E0C",
"G	c #EFE4AF",
"H	c #D0E562",
"I	c #EBE0AD",
"J	c #8E8769",
"K	c #EBE0AE",
"L	c #90896C",
"M	c #D7CDCA",
"N	c #706B53",
"O	c #ECE9F7",
"P	c #E5E0F4",
"Q	c #0E0D10",
"R	c #312E38",
"S	c #BBB3D9",
"                                                                                                                                                      ",
"                                                                                                                                                      ",
"                                                                                                                                                      ",
"                                                                                                                                                      ",
"                                                                                                                                                      ",
"                                                                                                                                                      ",
"                                     +@#########@$%                                                                                                   ",
"                                  +@#################@+                                                                                               ",
"                                 &####################*&                                                                                              ",
"                                +=####-;>>>>>>>>,'@#####@&                                                                                            ",
"                               )####;>>>>>>>>>>>>>>>!#####!                                                                                           ",
"                              )####$>>>>>>>>>>>>>>>>>;~###*                                                                                           ",
"                            +@###{;>>>>>>>>>>>>>>>>>>>>;*##)                                                                                          ",
"                          ]@####{;>>>>>>>>>>>>>>>>>>>>>>'###)                                                                                         ",
"                         ]=####-;>>>>>>>>>>>>>>>>>>>>>>>;{###!                                                                                        ",
"                         ^###-;>>>>>>>>>>>>>>>>>>>>>>>>>>;{##*                                                                                        ",
"                        &###$>>>>>>>>>>>>>>>>>>>>>>>>>>>>>;###                                                                                        ",
"                        ^##->>>>>>>>>>>>>>>>>>>>>>>>>>>>>>>###                                                                                        ",
"                       &###;>>>>>>>>>>>>>>>>>>>>>>>>>>>>>>>###                                                                                        ",
"                       ^##->>>>>>>>>>>>>>>>]@####@+>>>>>>>>*##!                                                                                       ",
"                       ###;>>>>>>>>>>>>>>>>@######*&>>>>>>>'##*                                                                                       ",
"                       ###>>>>>>>>>>>>>>>>>!########)>>>>>>;###                                                                                       ",
"                       ###>>>>>>>>>>>>>>>>>>+/+ !####)>>>>>>###                                                                                       ",
"                       ###>>>>>>>>>>>>>>>>>&##*;(;{###)>>>>>###                                                                                       ",
"                       ###>>>>>>>>>>>>>>>>>^##-(((;{###)>>>>###                                                                                       ",
"                       ###>>>>>>>>>>>>>>>>&###;((((;{###!>>>###                                                                                       ",
"                       ###>>>>>>>>>>>>>>>>^##-((((((;{##*>>]###                                                                                       ",
"                       *##!>>>>>>>>>>>>>>>###;(((((((;###>>^###                                                                                       ",
"                       '##*>>>>>>>>>>>>>>>###+((((((((###>>####                                                                                       ",
"                       ;###>>>>>>>>>>>>>>>*##*((((((((###>>####                                                                                       ",
"                        ###>>>>>>>>>>>>>>>!###!((((((+###>>####                                                                                       ",
"                        ###>>>>>>>>>>>>>>>>'##*&(((()####>>####                                                                                       ",
"                        *##!>>>>>>>>>>>>>>>;*###########$>>*###                                                                                       ",
"                        '##*+>>>>>>>>>>>>>>>!#########{;>>>'###                                                                                       ",
"                        ;*##*>>>>>>>>>>>>>>>>;~######-;>>>>;###                                                                                       ",
"                         !###>>>>>>>>>>>>>>>>>>>>>>>>>>>>>>>###                                                                                       ",
"                          ###>>>>>>>>>>>>>>>>>>>>>>>>>>>>>>>###                                                                                       ",
"                          ###>>>>>>>>>>>>>>>>>>>>>>>>>>>>>>>###                                                                                       ",
"                          ###>>>>>>>>>>>>>>>>>>>>>>>>>>>>>>>###                                                                                       ",
"                          *##!>>>>>>>>>>>>>>>>>>>>>>>>>>>>>>*##!                                                                                      ",
"                          '##*_>>>>>>>>>>>>>>>>>>>>>>>>>>>>>'##*                                                                                      ",
"                          ;*###%>>>>>>>>>>>>>>>>>>>>>>>>>>+@####@+                                                                                    ",
"                           !###@;>>>>>>>>>>>>>>>>>>>>>+@#########*                                                                                    ",
"                            :=##<+>>>>>>>>>>>>>>>>>>+@###########$                                                                                    ",
"                            [}###|>>>>>>>>>>>>>>]@#########-;;###                                                                                     ",
"                           :*####1>>>>>>>>>>>>>>@######-;>>>>>###                                                                                     ",
"                           $######)>>>>>>>>>>>>>!####-;>>>>>>>###                                                                                     ",
"                          )###['###)>>>>>>>>>>>>>>>>>>>>>>>>>>*##)                                                                                    ",
"                         &###{2;{###)>>>>>>>>>>>>>>>>>>>>>>>>>'###!                                                                                   ",
"                         ^##{;22;{###!>>>>>>>>>>>>>>>>>>>>>>>>;{##*                                                                                   ",
"                        &###;2222;{##*&>>>>>>>>>>>>>>>>>>>>>>>>;###                                                                                   ",
"                        ^##-222222;*###)>>>>>>>>>>>>>>>>>>>>>>>>###                                                                                   ",
"                        ###;2222222!####$:>>>>>>>>>>>>>>>>>>>>>)###                                                                                   ",
"                        ###222222222;{#######@+>>>>>>>>>>>>>>>&###-                                                                                   ",
"                        ###2222222222;3########@&>>>>>>>>>>>>+=##{;                                                                                   ",
"                        ###222222222222[4########################;                                                                                    ",
"                        ###22222222222222222!###################$                                                                                     ",
"                        ###2222222222222222222;~##############-;                                                                                      ",
"                       &###222222222222222222222222;{##*+                                                                                             ",
"                       ^##-2222225667222222222222222;*##*                                                                                             ",
"                       ###;2222228###6722222222222222!###                                                                                             ",
"                       ###2222227#######67222222222222*##!+@######@+                                                                                  ",
"                       ###2222228##9######672222222222'##0#########*                                                                                  ",
"                       ###222222###aab######c222222222;#############!                                                                                 ",
"                       ###222222###ddddab####c222222222*###{;dddd'##*                                                                                 ",
"                       ###222222###ddddddae###c22222222'###fddddd;*##)                                                                                ",
"                       ###222222###dddddddae###c2222222;###3dddddd'###!                                                                               ",
"                       ###222222###ddddddddae###c2222222####dddddd;{##*                                                                               ",
"                       ###222222###dddddddddae###6722227####ddddddd;###                                                                               ",
"                       ###222222###ddddddddddae####67228####dddddddd###                                                                               ",
"                       ###222222###dddddddddddab#####c2#####ghhgdddd###                                                                               ",
"                       ###222222###dddddddddddddab####i####jdddkdddd###                                                                               ",
"                       ###222222###dddddddddddddddae#####lmndddodddd###                                                                               ",
"                       ###222222###ddddddddddddddddae####pddddqdrddd###                                                                               ",
"                       ###222222###ddddddddddddddddda####sdtduddddd&###                                                                               ",
"                       ###222222v##wddddddddddddddddd####drdddddddd^##-                                                                               ",
"                       ###222222x##vdddddddddddddddddv###dddddddddd###;                                                                               ",
"                       ###222222a###dddddddddddddddddw#bbrddtrddddd###                                                                                ",
"                       ###2222222###ddddddddddddddddddddddtdddddddd###                                                                                ",
"                       ###2222222###dddddddddddddddddddddddddrddddd###                                                                                ",
"                       ###2222222v##wdddddddddddddddddddddddddtddtd###                                                                                ",
"                       ###2222222x##vdddddddddddddddddddrddrddddddy###                                                                                ",
"                       ###2222222a###zddddddddddddddddddddddddrdddA##-                                                                                ",
"                       ###22222222v##vwdddddddddddddddddddddrddddr###;                                                                                ",
"                       ###22222222w####BdddddddddddddddddddddddrCDm##                                                                                 ",
"                       ###222222222w###67dddddddddddddddrdddddddddE##                                                                                 ",
"                       ###2222222222B####wddddddddddddddddddddddddd##                                                                                 ",
"                       ###22222222222F###vddddddddddddddddddddddddd##                                                                                 ",
"                       *##,22222222222av##cdddddddddddddddddddddddd##                                                                                 ",
"                       -##3222222222222x###cdddddddddddddrdddrddrdd##                                                                                 ",
"                       ,###!22222222222ae###cddddddddddddGddddddddd##                                                                                 ",
"                        ~##*222222222222ae###6zddddddddddHddddIddrJ##                                                                                 ",
"                        ;###2222222222222ae###vzdddddddddddddddrdd###                                                                                 ",
"                         ###22222222222222ab###vddddddddddddddKddL###                                                                                 ",
"                         ###2222222222222222w###cdddddddddddddMdJ####                                                                                 ",
"                         ###22222222222222222x###wddddddddddddd######                                                                                 ",
"                         ###22222222222222222ae##v7dddddddddddd#####$                                                                                 ",
"                         *##!22222222222222222av###6zdddddddddd###{;                                                                                  ",
"                         '##*222222222222222222w######67dddrddc###;                                                                                   ",
"                         ;###2222222222222222222ab#########NdJ####                                                                                    ",
"                          ###222222222222222222222w###############                                                                                    ",
"                          ###222222222222222222222222ab###########                                                                                    ",
"                          *##)222222222222222222222222222222222###                                                                                    ",
"                          '###!22222222222222222222222222222222###                                                                                    ",
"                          ;{##*22222222222222222222222222222222###                                                                                    ",
"                           ;###22222222222222222222222222222222###                                                                                    ",
"                            ###22222222222222222222222222222222###                                                                                    ",
"                            ###22222222222222222222222222222222###                                                                                    ",
"                            ###22222222222222222222222222222222###                                                                                    ",
"                            *##!2222222222222222222222222222222###                                                                                    ",
"                            '##*2222222222222222222222222222222###                                                                                    ",
"                            ;###2222222222222222222222222222222###                                                                                    ",
"                             *##,222222222222222222222222222222###                                                                                    ",
"                             -##3222222222222222222222222222222###                                                                                    ",
"                             ,###222222222222222222222222222222###                                                                                    ",
"                              ###222222222222222222222222222222###                                                                                    ",
"                              ###222222222222222222222222222222###                                                                                    ",
"                              ###222222222222222222222222222222###                                                                                    ",
"                              ###222222222222222222222222222222###                                                                                    ",
"                              ###222222222222222222222222222222###                                                                                    ",
"                              ###22222222222222222222222222222&###                                                                                    ",
"                              ###22222222222222222222222222222^##-                                                                                    ",
"                              ###22222222222222222222222222222###;                                                                                    ",
"                              ###22222222222222222222222222222###                                                                                     ",
"                              ###2222222222222222222222222222]###                                                                                     ",
"                             &###2222222222222222222222222222^###                                                                                     ",
"                             ^##-2222222222222222222222222222###$                                                                                     ",
"                             ###;222222222222222222222222222&###                                                                                      ",
"                             ###2222222222222222222222222222^##-                                                                                      ",
"                             ###2222222222222222222222222222###;                                                                                      ",
"                             ###2222222222222222222222222222###                                                                                       ",
"                             ###222222222222222222222222222&###                                                                                       ",
"                            )###222222222222222222222222222^##-                                                                                       ",
"                           &###-22222222222222222222222222]###;                                                                                       ",
"                           ^##{;22222222222222222222222222^###                                                                                        ",
"                          ]###;22222222222222222222222222]###$                                                                                        ",
"                          ^###22222222222222222222222222]=###                                                                                         ",
"                          ###$2222222222222222222222222]=###$                                                                                         ",
"                         )###2222222222222222222222222+=###$                                                                                          ",
"                        &###-222222222222222222222222)####$                                                                                           ",
"                        ^##{;2222222222222222222222]@####$                                                                                            ",
"                       )###;22222222222222222222222^###{;                                                                                             ",
"                      )###-22222222222222222222222)###-;                                                                                              ",
"                     &###{;222222222222222222222+@###-                                                                                                ",
"                     @##QR+222222222222222222S)@####{;                                                                                                ",
"                   ]@######&2222222222222222&=#####-;                                                                                                 ",
"                   ^########)222222222S)@########-;                                                                                                   ",
"                   *##########################@+                                                                                                      ",
"                   !#########################-;                                                                                                       ",
"                     ;~################@+                                                                                                             "};
