/* XPM */
static char * asdf_xpm[] = {
"150 150 73 1",
" 	c None",
".	c #C8BFE7",
"+	c #7D7790",
"@	c #19181D",
"#	c #000000",
"$	c #524E5E",
"%	c #968FAD",
"&	c #767189",
"*	c #060607",
"=	c #0D0C0E",
"-	c #454250",
";	c #C2B9E0",
">	c #22B14C",
",	c #A29BBC",
"'	c #585465",
")	c #645F73",
"!	c #6A657A",
"~	c #4B4857",
"{	c #383641",
"]	c #9089A6",
"^	c #131216",
"/	c #32303A",
"(	c #A349A4",
"_	c #837D97",
":	c #B5ADD1",
"<	c #0A0A0C",
"[	c #89839F",
"}	c #100F12",
"|	c #040405",
"1	c #020203",
"2	c #B5E61D",
"3	c #C9BFE7",
"4	c #C7BFE7",
"5	c #3F3C48",
"6	c #26242B",
"7	c #B6ADD2",
"8	c #1C1B20",
"9	c #C8BFE6",
"0	c #6B8811",
"a	c #0B0E02",
"b	c #82A515",
"c	c #171D04",
"d	c #5E5A6C",
"e	c #718F12",
"f	c #D7CDD2",
"g	c #EAE0B7",
"h	c #EFE4B0",
"i	c #6F7939",
"j	c #E7E49E",
"k	c #EEE3B2",
"l	c #4A5E0C",
"m	c #E8E59E",
"n	c #E0D5C7",
"o	c #3E4F0A",
"p	c #AFDF1C",
"q	c #D0E562",
"r	c #E2D8C4",
"s	c #C9C0E6",
"t	c #DCD3A7",
"u	c #EFE5B0",
"v	c #111603",
"w	c #EFE4B1",
"x	c #C5E547",
"y	c #5A730E",
"z	c #334108",
"A	c #060701",
"B	c #607A0F",
"C	c #44570B",
"D	c #ECE9F7",
"E	c #E5E0F4",
"F	c #0E0D10",
"G	c #312E38",
"H	c #BBB3D9",
"                                                                                                                                                      ",
"                                                                                                                                                      ",
"                                                                                                                                                      ",
"                                                                                                                                                      ",
"                                                                                                                                                      ",
"                                                                                                                                                      ",
"                                     +@#########@$%                                                                                                   ",
"                                  +@#################@+                                                                                               ",
"                                 &####################*&                                                                                              ",
"                                +=####-;>>>>>>>>,'@#####@&                                                                                            ",
"                               )####;>>>>>>>>>>>>>>>!#####!                                                                                           ",
"                              )####$>>>>>>>>>>>>>>>>>;~###*                                                                                           ",
"                            +@###{;>>>>>>>>>>>>>>>>>>>>;*##)                                                                                          ",
"                          ]@####{;>>>>>>>>>>>>>>>>>>>>>>'###)                                                                                         ",
"                         ]=####-;>>>>>>>>>>>>>>>>>>>>>>>;{###!                                                                                        ",
"                         ^###-;>>>>>>>>>>>>>>>>>>>>>>>>>>;{##*                                                                                        ",
"                        &###$>>>>>>>>>>>>>>>>>>>>>>>>>>>>>;###                                                                                        ",
"                        ^##->>>>>>>>>>>>>>>>>>>>>>>>>>>>>>>###                                                                                        ",
"                       &###;>>>>>>>>>>>>>>>>>>>>>>>>>>>>>>>###                                                                                        ",
"                       ^##->>>>>>>>>>>>>>>>]@####@+>>>>>>>>*##!                                                                                       ",
"                       ###;>>>>>>>>>>>>>>>>@######*&>>>>>>>'##*                                                                                       ",
"                       ###>>>>>>>>>>>>>>>>>!########)>>>>>>;###                                                                                       ",
"                       ###>>>>>>>>>>>>>>>>>>+/+ !####)>>>>>>###                                                                                       ",
"                       ###>>>>>>>>>>>>>>>>>&##*;(;{###)>>>>>###                                                                                       ",
"                       ###>>>>>>>>>>>>>>>>>^##-(((;{###)>>>>###                                                                                       ",
"                       ###>>>>>>>>>>>>>>>>&###;((((;{###!>>>###                                                                                       ",
"                       ###>>>>>>>>>>>>>>>>^##-((((((;{##*>>]###                                                                                       ",
"                       *##!>>>>>>>>>>>>>>>###;(((((((;###>>^###                                                                                       ",
"                       '##*>>>>>>>>>>>>>>>###+((((((((###>>####                                                                                       ",
"                       ;###>>>>>>>>>>>>>>>*##*((((((((###>>####                                                                                       ",
"                        ###>>>>>>>>>>>>>>>!###!((((((+###>>####                                                                                       ",
"                        ###>>>>>>>>>>>>>>>>'##*&(((()####>>####                                                                                       ",
"                        *##!>>>>>>>>>>>>>>>;*###########$>>*###                                                                                       ",
"                        '##*+>>>>>>>>>>>>>>>!#########{;>>>'###                                                                                       ",
"                        ;*##*>>>>>>>>>>>>>>>>;~######-;>>>>;###                                                                                       ",
"                         !###>>>>>>>>>>>>>>>>>>>>>>>>>>>>>>>###                                                                                       ",
"                          ###>>>>>>>>>>>>>>>>>>>>>>>>>>>>>>>###                                                                                       ",
"                          ###>>>>>>>>>>>>>>>>>>>>>>>>>>>>>>>###                                                                                       ",
"                          ###>>>>>>>>>>>>>>>>>>>>>>>>>>>>>>>###                                                                                       ",
"                          *##!>>>>>>>>>>>>>>>>>>>>>>>>>>>>>>*##!                                                                                      ",
"                          '##*_>>>>>>>>>>>>>>>>>>>>>>>>>>>>>'##*                                                                                      ",
"                          ;*###%>>>>>>>>>>>>>>>>>>>>>>>>>>+@####@+                                                                                    ",
"                           !###@;>>>>>>>>>>>>>>>>>>>>>+@#########*                                                                                    ",
"                            :=##<+>>>>>>>>>>>>>>>>>>+@###########$                                                                                    ",
"                            [}###|>>>>>>>>>>>>>>]@#########-;;###                                                                                     ",
"                           :*####1>>>>>>>>>>>>>>@######-;>>>>>###                                                                                     ",
"                           $######)>>>>>>>>>>>>>!####-;>>>>>>>###                                                                                     ",
"                          )###['###)>>>>>>>>>>>>>>>>>>>>>>>>>>*##)                                                                                    ",
"                         &###{2;{###)>>>>>>>>>>>>>>>>>>>>>>>>>'###!                                                                                   ",
"                         ^##{;22;{###!>>>>>>>>>>>>>>>>>>>>>>>>;{##*                                                                                   ",
"                        &###;2222;{##*&>>>>>>>>>>>>>>>>>>>>>>>>;###                                                                                   ",
"                        ^##-222222;*###)>>>>>>>>>>>>>>>>>>>>>>>>###                                                                                   ",
"                        ###;2222222!####$:>>>>>>>>>>>>>>>>>>>>>)###                                                                                   ",
"                        ###222222222;{#######@+>>>>>>>>>>>>>>>&###-                                                                                   ",
"                        ###2222222222;5########@&>>>>>>>>>>>>+=##{;                                                                                   ",
"                        ###222222222222[6########################;                                                                                    ",
"                        ###22222222222222222!###################$                                                                                     ",
"                        ###2222222222222222222;~##############-;                                                                                      ",
"                       &###22222222222222222222222278##########################@&                                                                     ",
"                       ^##-222222222222222222222220a######################################@&     ^#*;                                                 ",
"                       ###;22222222222222222222bc###################################################d                                                 ",
"                       ###222222222222ec############ce*##!      fggfhhhhhhhhhh;~##########################*                                           ",
"                       ###222222222bc##############ijhhhhhhhhhhhhhhkhhhhhhhhhhhhhhhhhhhhh;~################)                                          ",
"                       ###22222bc################lhmhhhhhhhhhhhhhhhnhhhhhhhhhhhhhhhhhhhhhhhhhhhhhhhhhhhh'###@+                                        ",
"                       ###2222ea#######ophhhhhhhhhhqhhhhhhhhhhhhhrshhhhhhhhhhhhhhhhhhhhhhhhhhhhhhhhhhhhh;{###*&                                       ",
"                       ###2220#######lhhhhhhhhhhhhhhhhhthhhhhhhhhuhhhhhhhhhhhhhhhhhhhhhhhhhhhhhhhhhhhhhhh;~####)                                      ",
"                       ###222v###lhhhhhhhhhhhhhhhhhhhhuhhhhhhhhhhhwhhhhhhhhhhhhhhhhhhhhhhhhhhhhhhhhhhhhhhhh!####!                                     ",
"                       ###222###phhhhhhhhhhhhhhhhhhhhhhhhhhhhhhhhhwhhhhhhhhhhhhhhhhhhhhhhhhhhhhhhhhhhhhhhhhh;{##*                                     ",
"                       ###222###hhhhhhhhhhhhhhhhhhhhhhhhhhhhhhhhhhhhhhhhhhhhhhhhhhhhhhhhhhhhhhhhhhhhhhhhhhhhh;###                                     ",
"                       ###222###hhhhhhhhhhhhhhhhhhhhhhhhhhhhhhhhhhhhhhhhhhhhhhhhhhhhhhhhhhhhhhhhhhhhhhhhhhhhhh###                                     ",
"                       ###222###hhhhhhhhhhhhhhhhhhhhhhhhhhhhhhhhhhhhhhhhhhhhhhhhhhhhhhhhhhhhhhhhhhhhhhhhhhhhhh###                                     ",
"                       ###222###hhhhhhhhhhhhhhhhhhhhhhhhhhhhhhhhhhhhhhhhhhhhhhhhhhhhhhhhhhhhhhhhhhhhhhhhhhhhhh###                                     ",
"                       ###222###hhhhhhhhhhxmhhhhhhhhhhhhhhhhhhhhgfhhhhhhhhhhhhhhhhhhhhhhhhhhhhhhhhhhhhhhhhhhh&###                                     ",
"                       ###222###hhhhhhhhhhmhhhhhhhhhhhhhhhhhhhhhhkhhhhhhhhhhhhhhhhhhhhhhhhhhhhhhhhhhhhhhhhhhh^##-                                     ",
"                       ###222###hhhhhhhhhhqhhhhhhhhhhhhhhhhhhhhhhnhhhhhhhhhhhh+@###########@&hhhhhhhhhhhhhhh&###;                                     ",
"                       ###222###hhhhhhhhhhhhhhhhhhhhhhec######################################@&hhhhhhhhhhhh^##-                                      ",
"                       ###222###hhhhhhhhhhhhhhhhhhhhhy##########################################)hhhhhhhhhhh###;                                      ",
"                       ###222###hhhhhhhhhhhhhhhhhhhhy##########################-;         ;~#####)hhhhhhhhhh###                                       ",
"                       ###222###hhhhhhhhhhhhhhhhhhh0###zp22*##!                              ;{###)hhhhhhhh&###                                       ",
"                       ###222###0hhhhhhhhhhhhhhhhhhv##zp222'##*                               ;{###$:hhhhhh^##-                                       ",
"                       ###222A####c0hhhhhhhhhhhhhhb###p2222;###                                ;{###*!hhhhh###;                                       ",
"                       ###222B######yhhhhhhhhhhhhhv###222222*##!                                ;5####@&hh&###                                        ",
"                       ###2222pC#####c0hhhhhhhhhec###l222222'##*                                  [6#########-                                        ",
"                       ###2222222pz#################o2222222;###                                   ;~########;                                        ",
"                       ###22222222pC###############op22222222*##!                                    ;~#####$                                         ",
"                       ###2222222222pC###########op2222222222'##*                                                                                     ",
"                       ###22222222222222222222222222222222222;###                                                                                     ",
"                       ###222222222222222222222222222222222222###                                                                                     ",
"                       *##,22222222222222222222222222222222222###                                                                                     ",
"                       -##522222222222222222222222222222222222###                                                                                     ",
"                       ,###!2222222222222222222222222222222222###                                                                                     ",
"                        ~##*2222222222222222222222222222222222###                                                                                     ",
"                        ;###2222222222222222222222222222222222*##!                                                                                    ",
"                         ###2222222222222222222222222222222222'##*                                                                                    ",
"                         ###2222222222222222222222222222222222;###                                                                                    ",
"                         ###22222222222222222222222222222222222###                                                                                    ",
"                         ###22222222222222222222222222222222222###                                                                                    ",
"                         *##!2222222222222222222222222222222222###                                                                                    ",
"                         '##*2222222222222222222222222222222222###                                                                                    ",
"                         ;###2222222222222222222222222222222222###                                                                                    ",
"                          ###2222222222222222222222222222222222###                                                                                    ",
"                          ###2222222222222222222222222222222222###                                                                                    ",
"                          *##)222222222222222222222222222222222###                                                                                    ",
"                          '###!22222222222222222222222222222222###                                                                                    ",
"                          ;{##*22222222222222222222222222222222###                                                                                    ",
"                           ;###22222222222222222222222222222222###                                                                                    ",
"                            ###22222222222222222222222222222222###                                                                                    ",
"                            ###22222222222222222222222222222222###                                                                                    ",
"                            ###22222222222222222222222222222222###                                                                                    ",
"                            *##!2222222222222222222222222222222###                                                                                    ",
"                            '##*2222222222222222222222222222222###                                                                                    ",
"                            ;###2222222222222222222222222222222###                                                                                    ",
"                             *##,222222222222222222222222222222###                                                                                    ",
"                             -##5222222222222222222222222222222###                                                                                    ",
"                             ,###222222222222222222222222222222###                                                                                    ",
"                              ###222222222222222222222222222222###                                                                                    ",
"                              ###222222222222222222222222222222###                                                                                    ",
"                              ###222222222222222222222222222222###                                                                                    ",
"                              ###222222222222222222222222222222###                                                                                    ",
"                              ###222222222222222222222222222222###                                                                                    ",
"                              ###22222222222222222222222222222&###                                                                                    ",
"                              ###22222222222222222222222222222^##-                                                                                    ",
"                              ###22222222222222222222222222222###;                                                                                    ",
"                              ###22222222222222222222222222222###                                                                                     ",
"                              ###2222222222222222222222222222]###                                                                                     ",
"                             &###2222222222222222222222222222^###                                                                                     ",
"                             ^##-2222222222222222222222222222###$                                                                                     ",
"                             ###;222222222222222222222222222&###                                                                                      ",
"                             ###2222222222222222222222222222^##-                                                                                      ",
"                             ###2222222222222222222222222222###;                                                                                      ",
"                             ###2222222222222222222222222222###                                                                                       ",
"                             ###222222222222222222222222222&###                                                                                       ",
"                            )###222222222222222222222222222^##-                                                                                       ",
"                           &###-22222222222222222222222222]###;                                                                                       ",
"                           ^##{;22222222222222222222222222^###                                                                                        ",
"                          ]###;22222222222222222222222222]###$                                                                                        ",
"                          ^###22222222222222222222222222]=###                                                                                         ",
"                          ###$2222222222222222222222222]=###$                                                                                         ",
"                         )###2222222222222222222222222+=###$                                                                                          ",
"                        &###-222222222222222222222222)####$                                                                                           ",
"                        ^##{;2222222222222222222222]@####$                                                                                            ",
"                       )###;22222222222222222222222^###{;                                                                                             ",
"                      )###-22222222222222222222222)###-;                                                                                              ",
"                     &###{;222222222222222222222+@###-                                                                                                ",
"                     @##FG+222222222222222222H)@####{;                                                                                                ",
"                   ]@######&2222222222222222&=#####-;                                                                                                 ",
"                   ^########)222222222H)@########-;                                                                                                   ",
"                   *##########################@+                                                                                                      ",
"                   !#########################-;                                                                                                       ",
"                     ;~################@+                                                                                                             "};
