/* XPM */
static char * asdleft_xpm[] = {
"150 150 84 1",
" 	c None",
".	c #C8BFE7",
"+	c #968FAD",
"@	c #524E5E",
"#	c #19181D",
"$	c #000000",
"%	c #7D7790",
"&	c #767189",
"*	c #060607",
"=	c #585465",
"-	c #A29BBC",
";	c #22B14C",
">	c #C2B9E0",
",	c #454250",
"'	c #0D0C0E",
")	c #6A657A",
"!	c #645F73",
"~	c #4B4857",
"{	c #383641",
"]	c #9089A6",
"^	c #131216",
"/	c #32303A",
"(	c #A349A4",
"_	c #837D97",
":	c #0A0A0C",
"<	c #B5ADD1",
"[	c #040405",
"}	c #100F12",
"|	c #89839F",
"1	c #020203",
"2	c #B5E61D",
"3	c #3F3C48",
"4	c #26242B",
"5	c #6B8811",
"6	c #171D04",
"7	c #82A515",
"8	c #111603",
"9	c #030303",
"0	c #1C2405",
"a	c #5A730E",
"b	c #44570B",
"c	c #AFDF1C",
"d	c #EFE4B0",
"e	c #9D96B6",
"f	c #334108",
"g	c #D7CDD2",
"h	c #EAE0B7",
"i	c #EEE3B2",
"j	c #615D48",
"k	c #2D3A07",
"l	c #EBE0B6",
"m	c #E0D6A5",
"n	c #5A5642",
"o	c #020202",
"p	c #EFE4B1",
"q	c #ECE1B6",
"r	c #635F4A",
"s	c #EDE3B3",
"t	c #EFE5B0",
"u	c #DDD3A5",
"v	c #607A0F",
"w	c #060701",
"x	c #4F650D",
"y	c #ECE1AF",
"z	c #968E72",
"A	c #718F12",
"B	c #E5DBBE",
"C	c #EFE5B1",
"D	c #93BB18",
"E	c #E8DDAB",
"F	c #4A5E0C",
"G	c #EFE4AF",
"H	c #8E8769",
"I	c #EBE0AD",
"J	c #D0E562",
"K	c #90896C",
"L	c #EBE0AE",
"M	c #D7CDCA",
"N	c #706B53",
"O	c #E5E0F4",
"P	c #ECE9F7",
"Q	c #BBB3D9",
"R	c #312E38",
"S	c #0E0D10",
"                                                                                                                                                      ",
"                                                                                                                                                      ",
"                                                                                                                                                      ",
"                                                                                                                                                      ",
"                                                                                                                                                      ",
"                                                                                                                                                      ",
"                                                                                                   +@#$$$$$$$$$#%                                     ",
"                                                                                               %#$$$$$$$$$$$$$$$$$#%                                  ",
"                                                                                              &*$$$$$$$$$$$$$$$$$$$$&                                 ",
"                                                                                            &#$$$$$#=-;;;;;;;;>,$$$$'%                                ",
"                                                                                           )$$$$$);;;;;;;;;;;;;;;>$$$$!                               ",
"                                                                                           *$$$~>;;;;;;;;;;;;;;;;;@$$$$!                              ",
"                                                                                          !$$*>;;;;;;;;;;;;;;;;;;;;>{$$$#%                            ",
"                                                                                         !$$$=;;;;;;;;;;;;;;;;;;;;;;>{$$$$#]                          ",
"                                                                                        )$$${>;;;;;;;;;;;;;;;;;;;;;;;>,$$$$']                         ",
"                                                                                        *$${>;;;;;;;;;;;;;;;;;;;;;;;;;;>,$$$^                         ",
"                                                                                        $$$>;;;;;;;;;;;;;;;;;;;;;;;;;;;;;@$$$&                        ",
"                                                                                        $$$;;;;;;;;;;;;;;;;;;;;;;;;;;;;;;;,$$^                        ",
"                                                                                        $$$;;;;;;;;;;;;;;;;;;;;;;;;;;;;;;;>$$$&                       ",
"                                                                                       )$$*;;;;;;;;%#$$$$#];;;;;;;;;;;;;;;;,$$^                       ",
"                                                                                       *$$=;;;;;;;&*$$$$$$#;;;;;;;;;;;;;;;;>$$$                       ",
"                                                                                       $$$>;;;;;;!$$$$$$$$);;;;;;;;;;;;;;;;;$$$                       ",
"                                                                                       $$$;;;;;;!$$$$) %/%;;;;;;;;;;;;;;;;;;$$$                       ",
"                                                                                       $$$;;;;;!$$${>(>*$$&;;;;;;;;;;;;;;;;;$$$                       ",
"                                                                                       $$$;;;;!$$${>(((,$$^;;;;;;;;;;;;;;;;;$$$                       ",
"                                                                                       $$$;;;)$$${>((((>$$$&;;;;;;;;;;;;;;;;$$$                       ",
"                                                                                       $$$];;*$${>((((((,$$^;;;;;;;;;;;;;;;;$$$                       ",
"                                                                                       $$$^;;$$$>(((((((>$$$;;;;;;;;;;;;;;;)$$*                       ",
"                                                                                       $$$$;;$$$((((((((%$$$;;;;;;;;;;;;;;;*$$=                       ",
"                                                                                       $$$$;;$$$((((((((*$$*;;;;;;;;;;;;;;;$$$>                       ",
"                                                                                       $$$$;;$$$%(((((()$$$);;;;;;;;;;;;;;;$$$                        ",
"                                                                                       $$$$;;$$$$!((((&*$$=;;;;;;;;;;;;;;;;$$$                        ",
"                                                                                       $$$*;;@$$$$$$$$$$$*>;;;;;;;;;;;;;;;)$$*                        ",
"                                                                                       $$$=;;;>{$$$$$$$$$);;;;;;;;;;;;;;;%*$$=                        ",
"                                                                                       $$$>;;;;>,$$$$$$~>;;;;;;;;;;;;;;;;*$$*>                        ",
"                                                                                       $$$;;;;;;;;;;;;;;;;;;;;;;;;;;;;;;;$$$)                         ",
"                                                                                       $$$;;;;;;;;;;;;;;;;;;;;;;;;;;;;;;;$$$                          ",
"                                                                                       $$$;;;;;;;;;;;;;;;;;;;;;;;;;;;;;;;$$$                          ",
"                                                                                       $$$;;;;;;;;;;;;;;;;;;;;;;;;;;;;;;;$$$                          ",
"                                                                                      )$$*;;;;;;;;;;;;;;;;;;;;;;;;;;;;;;)$$*                          ",
"                                                                                      *$$=;;;;;;;;;;;;;;;;;;;;;;;;;;;;;_*$$=                          ",
"                                                                                    %#$$$$#%;;;;;;;;;;;;;;;;;;;;;;;;;;+$$$*>                          ",
"                                                                                    *$$$$$$$$$#%;;;;;;;;;;;;;;;;;;;;;>#$$$)                           ",
"                                                                                    @$$$$$$$$$$$#%;;;;;;;;;;;;;;;;;;%:$$'<                            ",
"                                                                                     $$$>>,$$$$$$$$$#];;;;;;;;;;;;;;[$$$}|                            ",
"                                                                                     $$$;;;;;>,$$$$$$#;;;;;;;;;;;;;;1$$$$*<                           ",
"                                                                                     $$$;;;;;;;>,$$$$);;;;;;;;;;;;;!$$$$$$@                           ",
"                                                                                    !$$*;;;;;;;;;;;;;;;;;;;;;;;;;;!$$$=|$$$!                          ",
"                                                                                   )$$$=;;;;;;;;;;;;;;;;;;;;;;;;;!$$${>2{$$$&                         ",
"                                                                                   *$${>;;;;;;;;;;;;;;;;;;;;;;;;)$$${>22>{$$^                         ",
"                                                                                   $$$>;;;;;;;;;;;;;;;;;;;;;;;;&*$${>2222>$$$&                        ",
"                                                                                   $$$;;;;;;;;;;;;;;;;;;;;;;;;!$$$*>222222,$$^                        ",
"                                                                                   $$$!;;;;;;;;;;;;;;;;;;;;;<@$$$$)2222222>$$$                        ",
"                                                                                   ,$$$&;;;;;;;;;;;;;;;%#$$$$$$${>222222222$$$                        ",
"                                                                                   >{$$'%;;;;;;;;;;;;&#$$$$$$$$3>2222222222$$$                        ",
"                                                                                    >$$$$$$$$$$$$$$$$$$$$$$$$4|222222222222$$$                        ",
"                                                                                     @$$$$$$$$$$$$$$$$$$$)22222222222222222$$$                        ",
"                                                                                      >,$$$$$$$$$$$$$$~>2222222222222222222$$$                        ",
"                                                                                             %*$${>222222222222222222222222$$$&                       ",
"                                                                                             *$$*>2222222222222225667222222,$$^                       ",
"                                                                                             $$$)2222222222222256$$$8222222>$$$                       ",
"                                                                                  %#$$$$$$#%)$$*22222222222256$$$$$$$5222222$$$                       ",
"                                                                                  *$$$$$$$$$9$$=222222222256$$$$$$0$$8222222$$$                       ",
"                                                                                 )$$$$$$$$$$$$$>222222222a$$$$$$bcc$$$222222$$$                       ",
"                                                                                 *$$=dddd>{$$$*222222222a$$$$bcdddd$$$222222$$$                       ",
"                                                                                !$$*>ddddde$$$=22222222a$$$fcdddddd$$$222222$$$                       ",
"                                                                               )$$$=dddddd3$$$>2222222a$$$fcddddddd$$$222222$$$                       ",
"                                                                               *$${>dddddd$$$$2222222a$$$fcdddddddd$$$222222$$$                       ",
"                                                                               $$$>ddddddd$$$$5222256$$$fcddddddddd$$$222222$$$                       ",
"                                                                               $$$dddddddd$$$$82256$$$$fcdddddddddd$$$222222$$$                       ",
"                                                                               $$$ddddghhg$$$$$2a$$$$$bcddddddddddd$$$222222$$$                       ",
"                                                                               $$$ddddidddj$$$$k$$$$bcddddddddddddd$$$222222$$$                       ",
"                                                                               $$$ddddldddmno$$$$$fcddddddddddddddd$$$222222$$$                       ",
"                                                                               $$$dddpdqddddr$$$$fcdddddddddddddddd$$$222222$$$                       ",
"                                                                               $$$&dddddsdtdu$$$$cddddddddddddddddd$$$222222$$$                       ",
"                                                                               ,$$^ddddddddpd$$$$dddddddddddddddddv$$w222222$$$                       ",
"                                                                               >$$$dddddddddd$$$wdddddddddddddddddw$$x222222$$$                       ",
"                                                                                $$$dddddptddpbb$vddddddddddddddddd$$$c222222$$$                       ",
"                                                                                $$$ddddddddtdddddddddddddddddddddd$$$2222222$$$                       ",
"                                                                                $$$dddddpddddddddddddddddddddddddd$$$2222222$$$                       ",
"                                                                                $$$dtddtdddddddddddddddddddddddddv$$w2222222$$$                       ",
"                                                                                $$$yddddddpddpdddddddddddddddddddw$$x2222222$$$                       ",
"                                                                                ,$$zdddpddddddddddddddddddddddddA$$$c2222222$$$                       ",
"                                                                                >$$$pddddpdddddddddddddddddddddvw$$w22222222$$$                       ",
"                                                                                 $$nBCpdddddddddddddddddddddddD$$$$v22222222$$$                       ",
"                                                                                 $$Edddddddddpddddddddddddddd56$$$v222222222$$$                       ",
"                                                                                 $$dddddddddddddddddddddddddv$$$$D2222222222$$$                       ",
"                                                                                 $$dddddddddddddddddddddddddw$$$F22222222222$$$                       ",
"                                                                                 $$dddddddddddddddddddddddda$$wc22222222222-$$*                       ",
"                                                                                 $$ddpddpdddpddddddddddddda$$$x2222222222223$$,                       ",
"                                                                                 $$dddddddddGdddddddddddda$$$fc22222222222)$$$-                       ",
"                                                                                 $$HpddIddddJddddddddddA6$$$fc222222222222*$$~                        ",
"                                                                                 $$$ddpdddddddddddddddAw$$$fc2222222222222$$$>                        ",
"                                                                                 $$$KddLddddddddddddddw$$$bc22222222222222$$$                         ",
"                                                                                 $$$$HdMddddddddddddda$$$v2222222222222222$$$                         ",
"                                                                                 $$$$$$dddddddddddddv$$$x22222222222222222$$$                         ",
"                                                                                 @$$$$$dddddddddddd5w$$fc22222222222222222$$$                         ",
"                                                                                  >{$$$ddddddddddA6$$$wc22222222222222222)$$*                         ",
"                                                                                   >$$$addpddd56$$$$$$v222222222222222222*$$=                         ",
"                                                                                    $$$$HdN$$$$$$$$$bc2222222222222222222$$$>                         ",
"                                                                                    $$$$$$$$$$$$$$$v222222222222222222222$$$                          ",
"                                                                                    $$$$$$$$$$$bc222222222222222222222222$$$                          ",
"                                                                                    $$$222222222222222222222222222222222!$$*                          ",
"                                                                                    $$$22222222222222222222222222222222)$$$=                          ",
"                                                                                    $$$22222222222222222222222222222222*$${>                          ",
"                                                                                    $$$22222222222222222222222222222222$$$>                           ",
"                                                                                    $$$22222222222222222222222222222222$$$                            ",
"                                                                                    $$$22222222222222222222222222222222$$$                            ",
"                                                                                    $$$22222222222222222222222222222222$$$                            ",
"                                                                                    $$$2222222222222222222222222222222)$$*                            ",
"                                                                                    $$$2222222222222222222222222222222*$$=                            ",
"                                                                                    $$$2222222222222222222222222222222$$$>                            ",
"                                                                                    $$$222222222222222222222222222222-$$*                             ",
"                                                                                    $$$2222222222222222222222222222223$$,                             ",
"                                                                                    $$$222222222222222222222222222222$$$-                             ",
"                                                                                    $$$222222222222222222222222222222$$$                              ",
"                                                                                    $$$222222222222222222222222222222$$$                              ",
"                                                                                    $$$222222222222222222222222222222$$$                              ",
"                                                                                    $$$222222222222222222222222222222$$$                              ",
"                                                                                    $$$222222222222222222222222222222$$$                              ",
"                                                                                    $$$&22222222222222222222222222222$$$                              ",
"                                                                                    ,$$^22222222222222222222222222222$$$                              ",
"                                                                                    >$$$22222222222222222222222222222$$$                              ",
"                                                                                     $$$22222222222222222222222222222$$$                              ",
"                                                                                     $$$]2222222222222222222222222222$$$                              ",
"                                                                                     $$$^2222222222222222222222222222$$$&                             ",
"                                                                                     @$$$2222222222222222222222222222,$$^                             ",
"                                                                                      $$$&222222222222222222222222222>$$$                             ",
"                                                                                      ,$$^2222222222222222222222222222$$$                             ",
"                                                                                      >$$$2222222222222222222222222222$$$                             ",
"                                                                                       $$$2222222222222222222222222222$$$                             ",
"                                                                                       $$$&222222222222222222222222222$$$                             ",
"                                                                                       ,$$^222222222222222222222222222$$$!                            ",
"                                                                                       >$$$]22222222222222222222222222,$$$&                           ",
"                                                                                        $$$^22222222222222222222222222>{$$^                           ",
"                                                                                        @$$$]22222222222222222222222222>$$$]                          ",
"                                                                                         $$$']22222222222222222222222222$$$^                          ",
"                                                                                         @$$$']2222222222222222222222222@$$$                          ",
"                                                                                          @$$$'%2222222222222222222222222$$$!                         ",
"                                                                                           @$$$$!222222222222222222222222,$$$&                        ",
"                                                                                            @$$$$#]2222222222222222222222>{$$^                        ",
"                                                                                             >{$$$^22222222222222222222222>$$$!                       ",
"                                                                                              >,$$$!22222222222222222222222,$$$!                      ",
"                                                                                                ,$$$#%222222222222222222222>{$$$&                     ",
"                                                                                                >{$$$$#!Q222222222222222222%RS$$#                     ",
"                                                                                                 >,$$$$$'&2222222222222222&$$$$$$#]                   ",
"                                                                                                   >,$$$$$$$$#!Q222222222!$$$$$$$$^                   ",
"                                                                                                      %#$$$$$$$$$$$$$$$$$$$$$$$$$$*                   ",
"                                                                                                       >,$$$$$$$$$$$$$$$$$$$$$$$$$)                   ",
"                                                                                                             %#$$$$$$$$$$$$$$$$~>                     "};
