/* XPM */
static char * asdfleft_xpm[] = {
"150 150 73 1",
" 	c None",
".	c #C8BFE7",
"+	c #968FAD",
"@	c #524E5E",
"#	c #19181D",
"$	c #000000",
"%	c #7D7790",
"&	c #767189",
"*	c #060607",
"=	c #585465",
"-	c #A29BBC",
";	c #22B14C",
">	c #C2B9E0",
",	c #454250",
"'	c #0D0C0E",
")	c #6A657A",
"!	c #645F73",
"~	c #4B4857",
"{	c #383641",
"]	c #9089A6",
"^	c #131216",
"/	c #32303A",
"(	c #A349A4",
"_	c #837D97",
":	c #0A0A0C",
"<	c #B5ADD1",
"[	c #040405",
"}	c #100F12",
"|	c #89839F",
"1	c #020203",
"2	c #B5E61D",
"3	c #C7BFE7",
"4	c #C9BFE7",
"5	c #3F3C48",
"6	c #26242B",
"7	c #C8BFE6",
"8	c #1C1B20",
"9	c #B6ADD2",
"0	c #0B0E02",
"a	c #6B8811",
"b	c #5E5A6C",
"c	c #171D04",
"d	c #82A515",
"e	c #EFE4B0",
"f	c #D7CDD2",
"g	c #EAE0B7",
"h	c #718F12",
"i	c #EEE3B2",
"j	c #E7E49E",
"k	c #6F7939",
"l	c #E0D5C7",
"m	c #E8E59E",
"n	c #4A5E0C",
"o	c #C9C0E6",
"p	c #E2D8C4",
"q	c #D0E562",
"r	c #AFDF1C",
"s	c #3E4F0A",
"t	c #EFE5B0",
"u	c #DCD3A7",
"v	c #EFE4B1",
"w	c #111603",
"x	c #C5E547",
"y	c #5A730E",
"z	c #334108",
"A	c #060701",
"B	c #607A0F",
"C	c #44570B",
"D	c #E5E0F4",
"E	c #ECE9F7",
"F	c #BBB3D9",
"G	c #312E38",
"H	c #0E0D10",
"                                                                                                                                                      ",
"                                                                                                                                                      ",
"                                                                                                                                                      ",
"                                                                                                                                                      ",
"                                                                                                                                                      ",
"                                                                                                                                                      ",
"                                                                                                   +@#$$$$$$$$$#%                                     ",
"                                                                                               %#$$$$$$$$$$$$$$$$$#%                                  ",
"                                                                                              &*$$$$$$$$$$$$$$$$$$$$&                                 ",
"                                                                                            &#$$$$$#=-;;;;;;;;>,$$$$'%                                ",
"                                                                                           )$$$$$);;;;;;;;;;;;;;;>$$$$!                               ",
"                                                                                           *$$$~>;;;;;;;;;;;;;;;;;@$$$$!                              ",
"                                                                                          !$$*>;;;;;;;;;;;;;;;;;;;;>{$$$#%                            ",
"                                                                                         !$$$=;;;;;;;;;;;;;;;;;;;;;;>{$$$$#]                          ",
"                                                                                        )$$${>;;;;;;;;;;;;;;;;;;;;;;;>,$$$$']                         ",
"                                                                                        *$${>;;;;;;;;;;;;;;;;;;;;;;;;;;>,$$$^                         ",
"                                                                                        $$$>;;;;;;;;;;;;;;;;;;;;;;;;;;;;;@$$$&                        ",
"                                                                                        $$$;;;;;;;;;;;;;;;;;;;;;;;;;;;;;;;,$$^                        ",
"                                                                                        $$$;;;;;;;;;;;;;;;;;;;;;;;;;;;;;;;>$$$&                       ",
"                                                                                       )$$*;;;;;;;;%#$$$$#];;;;;;;;;;;;;;;;,$$^                       ",
"                                                                                       *$$=;;;;;;;&*$$$$$$#;;;;;;;;;;;;;;;;>$$$                       ",
"                                                                                       $$$>;;;;;;!$$$$$$$$);;;;;;;;;;;;;;;;;$$$                       ",
"                                                                                       $$$;;;;;;!$$$$) %/%;;;;;;;;;;;;;;;;;;$$$                       ",
"                                                                                       $$$;;;;;!$$${>(>*$$&;;;;;;;;;;;;;;;;;$$$                       ",
"                                                                                       $$$;;;;!$$${>(((,$$^;;;;;;;;;;;;;;;;;$$$                       ",
"                                                                                       $$$;;;)$$${>((((>$$$&;;;;;;;;;;;;;;;;$$$                       ",
"                                                                                       $$$];;*$${>((((((,$$^;;;;;;;;;;;;;;;;$$$                       ",
"                                                                                       $$$^;;$$$>(((((((>$$$;;;;;;;;;;;;;;;)$$*                       ",
"                                                                                       $$$$;;$$$((((((((%$$$;;;;;;;;;;;;;;;*$$=                       ",
"                                                                                       $$$$;;$$$((((((((*$$*;;;;;;;;;;;;;;;$$$>                       ",
"                                                                                       $$$$;;$$$%(((((()$$$);;;;;;;;;;;;;;;$$$                        ",
"                                                                                       $$$$;;$$$$!((((&*$$=;;;;;;;;;;;;;;;;$$$                        ",
"                                                                                       $$$*;;@$$$$$$$$$$$*>;;;;;;;;;;;;;;;)$$*                        ",
"                                                                                       $$$=;;;>{$$$$$$$$$);;;;;;;;;;;;;;;%*$$=                        ",
"                                                                                       $$$>;;;;>,$$$$$$~>;;;;;;;;;;;;;;;;*$$*>                        ",
"                                                                                       $$$;;;;;;;;;;;;;;;;;;;;;;;;;;;;;;;$$$)                         ",
"                                                                                       $$$;;;;;;;;;;;;;;;;;;;;;;;;;;;;;;;$$$                          ",
"                                                                                       $$$;;;;;;;;;;;;;;;;;;;;;;;;;;;;;;;$$$                          ",
"                                                                                       $$$;;;;;;;;;;;;;;;;;;;;;;;;;;;;;;;$$$                          ",
"                                                                                      )$$*;;;;;;;;;;;;;;;;;;;;;;;;;;;;;;)$$*                          ",
"                                                                                      *$$=;;;;;;;;;;;;;;;;;;;;;;;;;;;;;_*$$=                          ",
"                                                                                    %#$$$$#%;;;;;;;;;;;;;;;;;;;;;;;;;;+$$$*>                          ",
"                                                                                    *$$$$$$$$$#%;;;;;;;;;;;;;;;;;;;;;>#$$$)                           ",
"                                                                                    @$$$$$$$$$$$#%;;;;;;;;;;;;;;;;;;%:$$'<                            ",
"                                                                                     $$$>>,$$$$$$$$$#];;;;;;;;;;;;;;[$$$}|                            ",
"                                                                                     $$$;;;;;>,$$$$$$#;;;;;;;;;;;;;;1$$$$*<                           ",
"                                                                                     $$$;;;;;;;>,$$$$);;;;;;;;;;;;;!$$$$$$@                           ",
"                                                                                    !$$*;;;;;;;;;;;;;;;;;;;;;;;;;;!$$$=|$$$!                          ",
"                                                                                   )$$$=;;;;;;;;;;;;;;;;;;;;;;;;;!$$${>2{$$$&                         ",
"                                                                                   *$${>;;;;;;;;;;;;;;;;;;;;;;;;)$$${>22>{$$^                         ",
"                                                                                   $$$>;;;;;;;;;;;;;;;;;;;;;;;;&*$${>2222>$$$&                        ",
"                                                                                   $$$;;;;;;;;;;;;;;;;;;;;;;;;!$$$*>222222,$$^                        ",
"                                                                                   $$$!;;;;;;;;;;;;;;;;;;;;;<@$$$$)2222222>$$$                        ",
"                                                                                   ,$$$&;;;;;;;;;;;;;;;%#$$$$$$${>222222222$$$                        ",
"                                                                                   >{$$'%;;;;;;;;;;;;&#$$$$$$$$5>2222222222$$$                        ",
"                                                                                    >$$$$$$$$$$$$$$$$$$$$$$$$6|222222222222$$$                        ",
"                                                                                     @$$$$$$$$$$$$$$$$$$$)22222222222222222$$$                        ",
"                                                                                      >,$$$$$$$$$$$$$$~>2222222222222222222$$$                        ",
"                                                                     &#$$$$$$$$$$$$$$$$$$$$$$$$$$89222222222222222222222222$$$&                       ",
"                                                 >*$^     &#$$$$$$$$$$$$$$$$$$$$$$$$$$$$$$$$$$$$$$0a22222222222222222222222,$$^                       ",
"                                                 b$$$$$$$$$$$$$$$$$$$$$$$$$$$$$$$$$$$$$$$$$$$$$$$$$$$cd22222222222222222222>$$$                       ",
"                                           *$$$$$$$$$$$$$$$$$$$$$$$$$$~>eeeeeeeeeefggf      )$$*hc$$$$$$$$$$$$ch222222222222$$$                       ",
"                                          !$$$$$$$$$$$$$$$$~>eeeeeeeeeeeeeeeeeeeeeieeeeeeeeeeeeeejk$$$$$$$$$$$$$$cd222222222$$$                       ",
"                                        %#$$$=eeeeeeeeeeeeeeeeeeeeeeeeeeeeeeeeeeeeleeeeeeeeeeeeeeemen$$$$$$$$$$$$$$$$cd22222$$$                       ",
"                                       &*$$${>eeeeeeeeeeeeeeeeeeeeeeeeeeeeeeeeeeeeeopeeeeeeeeeeeeeqeeeeeeeeeers$$$$$$$0h2222$$$                       ",
"                                      !$$$$~>eeeeeeeeeeeeeeeeeeeeeeeeeeeeeeeeeeeeeeeteeeeeeeeeueeeeeeeeeeeeeeeeen$$$$$$$a222$$$                       ",
"                                     )$$$$)eeeeeeeeeeeeeeeeeeeeeeeeeeeeeeeeeeeeeeeeveeeeeeeeeeeteeeeeeeeeeeeeeeeeeeen$$$w222$$$                       ",
"                                     *$${>eeeeeeeeeeeeeeeeeeeeeeeeeeeeeeeeeeeeeeeeeveeeeeeeeeeeeeeeeeeeeeeeeeeeeeeeeer$$$222$$$                       ",
"                                     $$$>eeeeeeeeeeeeeeeeeeeeeeeeeeeeeeeeeeeeeeeeeeeeeeeeeeeeeeeeeeeeeeeeeeeeeeeeeeeee$$$222$$$                       ",
"                                     $$$eeeeeeeeeeeeeeeeeeeeeeeeeeeeeeeeeeeeeeeeeeeeeeeeeeeeeeeeeeeeeeeeeeeeeeeeeeeeee$$$222$$$                       ",
"                                     $$$eeeeeeeeeeeeeeeeeeeeeeeeeeeeeeeeeeeeeeeeeeeeeeeeeeeeeeeeeeeeeeeeeeeeeeeeeeeeee$$$222$$$                       ",
"                                     $$$eeeeeeeeeeeeeeeeeeeeeeeeeeeeeeeeeeeeeeeeeeeeeeeeeeeeeeeeeeeeeeeeeeeeeeeeeeeeee$$$222$$$                       ",
"                                     $$$&eeeeeeeeeeeeeeeeeeeeeeeeeeeeeeeeeeeeeeeeeeefgeeeeeeeeeeeeeeeeeeeemxeeeeeeeeee$$$222$$$                       ",
"                                     ,$$^eeeeeeeeeeeeeeeeeeeeeeeeeeeeeeeeeeeeeeeeeeeieeeeeeeeeeeeeeeeeeeeeemeeeeeeeeee$$$222$$$                       ",
"                                     >$$$&eeeeeeeeeeeeeee&#$$$$$$$$$$$#%eeeeeeeeeeeeleeeeeeeeeeeeeeeeeeeeeeqeeeeeeeeee$$$222$$$                       ",
"                                      ,$$^eeeeeeeeeeee&#$$$$$$$$$$$$$$$$$$$$$$$$$$$$$$$$$$$$$$cheeeeeeeeeeeeeeeeeeeeee$$$222$$$                       ",
"                                      >$$$eeeeeeeeeee!$$$$$$$$$$$$$$$$$$$$$$$$$$$$$$$$$$$$$$$$$$yeeeeeeeeeeeeeeeeeeeee$$$222$$$                       ",
"                                       $$$eeeeeeeeee!$$$$$~>         >,$$$$$$$$$$$$$$$$$$$$$$$$$$yeeeeeeeeeeeeeeeeeeee$$$222$$$                       ",
"                                       $$$&eeeeeeee!$$${>                              )$$*22rz$$$aeeeeeeeeeeeeeeeeeee$$$222$$$                       ",
"                                       ,$$^eeeeee<@$$${>                               *$$=222rz$$weeeeeeeeeeeeeeeeeea$$$222$$$                       ",
"                                       >$$$eeeee)*$$${>                                $$$>2222r$$$deeeeeeeeeeeeeeac$$$$A222$$$                       ",
"                                        $$$&ee&#$$$$5>                                )$$*222222$$$weeeeeeeeeeeeey$$$$$$B222$$$                       ",
"                                        ,$$$$$$$$$6|                                  *$$=222222n$$$cheeeeeeeeeac$$$$$Cr2222$$$                       ",
"                                        >$$$$$$$$~>                                   $$$>2222222s$$$$$$$$$$$$$$$$$zr2222222$$$                       ",
"                                         @$$$$$~>                                    )$$*22222222rs$$$$$$$$$$$$$$$Cr22222222$$$                       ",
"                                                                                     *$$=2222222222rs$$$$$$$$$$$Cr2222222222$$$                       ",
"                                                                                     $$$>22222222222222222222222222222222222$$$                       ",
"                                                                                     $$$222222222222222222222222222222222222$$$                       ",
"                                                                                     $$$22222222222222222222222222222222222-$$*                       ",
"                                                                                     $$$222222222222222222222222222222222225$$,                       ",
"                                                                                     $$$2222222222222222222222222222222222)$$$-                       ",
"                                                                                     $$$2222222222222222222222222222222222*$$~                        ",
"                                                                                    )$$*2222222222222222222222222222222222$$$>                        ",
"                                                                                    *$$=2222222222222222222222222222222222$$$                         ",
"                                                                                    $$$>2222222222222222222222222222222222$$$                         ",
"                                                                                    $$$22222222222222222222222222222222222$$$                         ",
"                                                                                    $$$22222222222222222222222222222222222$$$                         ",
"                                                                                    $$$2222222222222222222222222222222222)$$*                         ",
"                                                                                    $$$2222222222222222222222222222222222*$$=                         ",
"                                                                                    $$$2222222222222222222222222222222222$$$>                         ",
"                                                                                    $$$2222222222222222222222222222222222$$$                          ",
"                                                                                    $$$2222222222222222222222222222222222$$$                          ",
"                                                                                    $$$222222222222222222222222222222222!$$*                          ",
"                                                                                    $$$22222222222222222222222222222222)$$$=                          ",
"                                                                                    $$$22222222222222222222222222222222*$${>                          ",
"                                                                                    $$$22222222222222222222222222222222$$$>                           ",
"                                                                                    $$$22222222222222222222222222222222$$$                            ",
"                                                                                    $$$22222222222222222222222222222222$$$                            ",
"                                                                                    $$$22222222222222222222222222222222$$$                            ",
"                                                                                    $$$2222222222222222222222222222222)$$*                            ",
"                                                                                    $$$2222222222222222222222222222222*$$=                            ",
"                                                                                    $$$2222222222222222222222222222222$$$>                            ",
"                                                                                    $$$222222222222222222222222222222-$$*                             ",
"                                                                                    $$$2222222222222222222222222222225$$,                             ",
"                                                                                    $$$222222222222222222222222222222$$$-                             ",
"                                                                                    $$$222222222222222222222222222222$$$                              ",
"                                                                                    $$$222222222222222222222222222222$$$                              ",
"                                                                                    $$$222222222222222222222222222222$$$                              ",
"                                                                                    $$$222222222222222222222222222222$$$                              ",
"                                                                                    $$$222222222222222222222222222222$$$                              ",
"                                                                                    $$$&22222222222222222222222222222$$$                              ",
"                                                                                    ,$$^22222222222222222222222222222$$$                              ",
"                                                                                    >$$$22222222222222222222222222222$$$                              ",
"                                                                                     $$$22222222222222222222222222222$$$                              ",
"                                                                                     $$$]2222222222222222222222222222$$$                              ",
"                                                                                     $$$^2222222222222222222222222222$$$&                             ",
"                                                                                     @$$$2222222222222222222222222222,$$^                             ",
"                                                                                      $$$&222222222222222222222222222>$$$                             ",
"                                                                                      ,$$^2222222222222222222222222222$$$                             ",
"                                                                                      >$$$2222222222222222222222222222$$$                             ",
"                                                                                       $$$2222222222222222222222222222$$$                             ",
"                                                                                       $$$&222222222222222222222222222$$$                             ",
"                                                                                       ,$$^222222222222222222222222222$$$!                            ",
"                                                                                       >$$$]22222222222222222222222222,$$$&                           ",
"                                                                                        $$$^22222222222222222222222222>{$$^                           ",
"                                                                                        @$$$]22222222222222222222222222>$$$]                          ",
"                                                                                         $$$']22222222222222222222222222$$$^                          ",
"                                                                                         @$$$']2222222222222222222222222@$$$                          ",
"                                                                                          @$$$'%2222222222222222222222222$$$!                         ",
"                                                                                           @$$$$!222222222222222222222222,$$$&                        ",
"                                                                                            @$$$$#]2222222222222222222222>{$$^                        ",
"                                                                                             >{$$$^22222222222222222222222>$$$!                       ",
"                                                                                              >,$$$!22222222222222222222222,$$$!                      ",
"                                                                                                ,$$$#%222222222222222222222>{$$$&                     ",
"                                                                                                >{$$$$#!F222222222222222222%GH$$#                     ",
"                                                                                                 >,$$$$$'&2222222222222222&$$$$$$#]                   ",
"                                                                                                   >,$$$$$$$$#!F222222222!$$$$$$$$^                   ",
"                                                                                                      %#$$$$$$$$$$$$$$$$$$$$$$$$$$*                   ",
"                                                                                                       >,$$$$$$$$$$$$$$$$$$$$$$$$$)                   ",
"                                                                                                             %#$$$$$$$$$$$$$$$$~>                     "};
